fragments,cover,species
1024,0.001,0.13
1024,0.005,4.2199999999999998
1024,0.01,15.4
1024,0.02,39.950000000000003
1024,0.04,60.460000000000001
1024,0.08,64.0
1024,0.16,64.0
1024,0.32,64.0
1,0.001,4.1299999999999999
1,0.005,15.140000000000001
1,0.01,25.34
1,0.02,40.009999999999998
1,0.04,53.810000000000002
1,0.08,62.229999999999997
1,0.16,63.93
1,0.32,64.0
4,0.001,5.79
4,0.005,17.239999999999998
4,0.01,27.59
4,0.02,42.030000000000001
4,0.04,55.07
4,0.08,62.630000000000003
4,0.16,63.969999999999999
4,0.32,64.0
64,0.001,2.3900000000000001
64,0.005,23.109999999999999
64,0.01,38.700000000000003
64,0.02,52.18
64,0.04,60.079999999999998
64,0.08,63.539999999999999
64,0.16,63.990000000000002
64,0.32,64.0
256,0.001,0.58999999999999997
256,0.005,13.09
256,0.01,32.659999999999997
256,0.02,53.240000000000002
256,0.04,62.289999999999999
256,0.08,63.909999999999997
256,0.16,64.0
256,0.32,64.0
16,0.001,5.1399999999999997
16,0.005,23.219999999999999
16,0.01,33.729999999999997
16,0.02,45.420000000000002
16,0.04,57.159999999999997
16,0.08,63.0
16,0.16,64.0
16,0.32,64.0
